…
``` r
homicides_dta
```

    ## # A tibble: 52,179 x 12
    ##    uid   reported_date victim_last victim_first victim_race victim_age
    ##    <chr>         <dbl> <chr>       <chr>        <chr>       <chr>     
    ##  1 Alb-…      20100504 GARCIA      JUAN         Hispanic    78        
    ##  2 Alb-…      20100216 MONTOYA     CAMERON      Hispanic    17        
    ##  3 Alb-…      20100601 SATTERFIELD VIVIANA      White       15        
    ##  4 Alb-…      20100101 MENDIOLA    CARLOS       Hispanic    32        
    ##  5 Alb-…      20100102 MULA        VIVIAN       White       72        
    ##  6 Alb-…      20100126 BOOK        GERALDINE    White       91        
    ##  7 Alb-…      20100127 MALDONADO   DAVID        Hispanic    52        
    ##  8 Alb-…      20100127 MALDONADO   CONNIE       Hispanic    52        
    ##  9 Alb-…      20100130 MARTIN-LEY… GUSTAVO      White       56        
    ## 10 Alb-…      20100210 HERRERA     ISRAEL       Hispanic    43        
    ## # … with 52,169 more rows, and 6 more variables: victim_sex <chr>, city <chr>,
    ## #   state <chr>, lat <dbl>, lon <dbl>, disposition <chr>
…
for (i in 1:length(seq(0,6))){
  sim_many_mu[[i]] = sim_mean_p(mu_test = count) %>% 
  mutate(null_rej = case_when(
           p.value <= 0.05 ~ 1,
           p.value > 0.05 ~ 0
         )) # add column showing if null is rejected (binary)
  count = count + 1
}

sim_many_mu #list of length 6, 5000 rows each
```

    ## [[1]]
    ## # A tibble: 5,000 x 4
    ##    estimate p.value    mu null_rej
    ##       <dbl>   <dbl> <dbl>    <dbl>
    ##  1    0.230  0.796      0        0
    ##  2    0.452  0.513      0        0
    ##  3   -1.98   0.0238     0        1
    ##  4    0.310  0.747      0        0
    ##  5   -1.42   0.153      0        0
    ##  6   -1.08   0.302      0        0
    ##  7    1.16   0.155      0        0
    ##  8   -1.00   0.303      0        0
    ##  9   -0.268  0.764      0        0
    ## 10    0.149  0.881      0        0
    ## # … with 4,990 more rows
    ## 
    ## [[2]]
    ## # A tibble: 5,000 x 4
    ##    estimate p.value    mu null_rej
    ##       <dbl>   <dbl> <dbl>    <dbl>
    ##  1   0.768   0.403      1        0
    ##  2   0.865   0.473      1        0
    ##  3   0.190   0.857      1        0
    ##  4  -0.0786  0.937      1        0
    ##  5   2.15    0.0426     1        1
    ##  6   1.56    0.0645     1        0
    ##  7  -0.260   0.748      1        0
    ##  8   0.203   0.791      1        0
    ##  9   0.944   0.304      1        0
    ## 10   0.821   0.380      1        0
    ## # … with 4,990 more rows
    ## 
    ## [[3]]
    ## # A tibble: 5,000 x 4
    ##    estimate  p.value    mu null_rej
    ##       <dbl>    <dbl> <dbl>    <dbl>
    ##  1     2.54 0.00308      2        1
    ##  2     3.04 0.000351     2        1
    ##  3     1.22 0.190        2        0
    ##  4     1.30 0.128        2        0
    ##  5     2.51 0.00477      2        1
    ##  6     2.53 0.0129       2        1
    ##  7     1.32 0.186        2        0
    ##  8     2.00 0.0280       2        1
    ##  9     1.52 0.0832       2        0
    ## 10     2.32 0.0391       2        1
    ## # … with 4,990 more rows
    ## 
    ## [[4]]
    ## # A tibble: 5,000 x 4
    ##    estimate     p.value    mu null_rej
    ##       <dbl>       <dbl> <dbl>    <dbl>
    ##  1    4.79  0.00000304      3        1
    ##  2    2.47  0.0183          3        1
    ##  3    5.84  0.000000122     3        1
    ##  4    2.84  0.00652         3        1
    ##  5    0.986 0.336           3        0
    ##  6    3.12  0.000390        3        1
    ##  7    1.51  0.119           3        0
    ##  8    3.03  0.00970         3        1
    ##  9    3.76  0.0000335       3        1
    ## 10    1.62  0.107           3        0
    ## # … with 4,990 more rows
    ## 
    ## [[5]]
    ## # A tibble: 5,000 x 4
    ##    estimate    p.value    mu null_rej
    ##       <dbl>      <dbl> <dbl>    <dbl>
    ##  1     3.85 0.000935       4        1
    ##  2     4.76 0.00000110     4        1
    ##  3     4.64 0.000142       4        1
    ##  4     3.84 0.000123       4        1
    ##  5     4.05 0.000120       4        1
    ##  6     3.43 0.00195        4        1
    ##  7     4.54 0.00000352     4        1
    ##  8     5.19 0.0000778      4        1
    ##  9     4.36 0.000225       4        1
    ## 10     3.90 0.000172       4        1
    ## # … with 4,990 more rows
    ## 
    ## [[6]]
    ## # A tibble: 5,000 x 4
    ##    estimate      p.value    mu null_rej
    ##       <dbl>        <dbl> <dbl>    <dbl>
    ##  1     3.62 0.000231         5        1
    ##  2     6.72 0.000000310      5        1
    ##  3     3.26 0.000272         5        1
    ##  4     6.52 0.000000328      5        1
    ##  5     5.16 0.0000381        5        1
    ##  6     5.28 0.0000000859     5        1
    ##  7     2.84 0.0216           5        1
    ##  8     3.58 0.00153          5        1
    ##  9     5.43 0.00000252       5        1
    ## 10     4.18 0.000120         5        1
    ## # … with 4,990 more rows
    ## 
    ## [[7]]
    ## # A tibble: 5,000 x 4
    ##    estimate  p.value    mu null_rej
    ##       <dbl>    <dbl> <dbl>    <dbl>
    ##  1     6.21 1.81e- 8     6        1
    ##  2     5.58 7.96e- 6     6        1
    ##  3     6.13 1.29e- 8     6        1
    ##  4     5.76 1.14e- 7     6        1
    ##  5     7.44 2.67e-10     6        1
    ##  6     4.80 2.12e- 8     6        1
    ##  7     6.25 4.29e- 7     6        1
    ##  8     6.10 4.01e- 8     6        1
    ##  9     6.39 1.30e- 6     6        1
    ## 10     5.71 7.48e- 8     6        1
    ## # … with 4,990 more rows
…
